A brief history of the tidyverse
…
This code is unappealing for new users because it requires that you not only understand functions but also the basics of functional programming. This means that if you’re teaching R, you can’t teach it until later in the semester, even though the underlying task is straight forward and is something you want to be able to do early in your data analysis journey.

The creation of dplyr allowed you to instead write code like this:

library(dplyr)

babynames |>
  group_by(year, sex) |>
  mutate(rank = rank(desc(n)))
#> # A tibble: 1,924,665 × 6
#> # Groups:   year, sex [276]
#>     year sex   name          n   prop  rank
#>    <dbl> <chr> <chr>     <int>  <dbl> <dbl>
#>  1  1880 F     Mary       7065 0.0724     1
#>  2  1880 F     Anna       2604 0.0267     2
#>  3  1880 F     Emma       2003 0.0205     3
#>  4  1880 F     Elizabeth  1939 0.0199     4
#>  5  1880 F     Minnie     1746 0.0179     5
#>  6  1880 F     Margaret   1578 0.0162     6
#>  7  1880 F     Ida        1472 0.0151     7
#>  8  1880 F     Alice      1414 0.0145     8
#>  9  1880 F     Bertha     1320 0.0135     9
#> 10  1880 F     Sarah      1288 0.0132    10
#> # ℹ 1,924,655 more rows
…
