A brief history of the tidyverse
…
Here we’re using ddply() because the input is a data frame and we want the output also to be a data frame. We then describe how we want to split the input up (here by year and sex), and then what we want to do to each piece. (I’ve also avoided attached plyr as it has some unfortunate conflicts with dplyr that will break my code later in the article. If I was to work on this again today, I would take much greater pains to avoid such conflicts.)

This code is unappealing when teaching students new to R because I think the question is very accesssible but the code is not: you not only have to understand functions but also the basics of functional programming. This meant that it couldn’t be taught until later in the semester, even though I think the basic ideas are relatively straight foreward.

The creation of dplyr meant that you could instead write code like this:

In [5]:

library(dplyr)

babynames |>
  group_by(year, sex) |>
  mutate(rank = rank(desc(n)))

# A tibble: 1,924,665 × 6
# Groups:   year, sex [276]
    year sex   name          n   prop  rank
   <dbl> <chr> <chr>     <int>  <dbl> <dbl>
 1  1880 F     Mary       7065 0.0724     1
 2  1880 F     Anna       2604 0.0267     2
 3  1880 F     Emma       2003 0.0205     3
 4  1880 F     Elizabeth  1939 0.0199     4
 5  1880 F     Minnie     1746 0.0179     5
 6  1880 F     Margaret   1578 0.0162     6
 7  1880 F     Ida        1472 0.0151     7
 8  1880 F     Alice      1414 0.0145     8
 9  1880 F     Bertha     1320 0.0135     9
10  1880 F     Sarah      1288 0.0132    10
# ℹ 1,924,655 more rows
…
